\select@language {brazil}
\contentsline {chapter}{Lista de Figuras}{ix}{chapter*.4}
\contentsline {chapter}{Lista de Tabelas}{xi}{chapter*.5}
\contentsline {chapter}{\numberline {1}Introdu\c c\~ao}{1}{chapter.1}
\contentsline {section}{\numberline {1.1}Objetivos}{1}{section.1.1}
\contentsline {section}{\numberline {1.2}Organiza\c c\~ao do Trabalho}{2}{section.1.2}
\contentsline {chapter}{\numberline {2}Conceitos}{3}{chapter.2}
\contentsline {section}{\numberline {2.1}Fundamentos}{3}{section.2.1}
\contentsline {subsection}{\numberline {2.1.1}\'Acidos Nucl\'eicos}{3}{subsection.2.1.1}
\contentsline {subsection}{\numberline {2.1.2}Amino\'acidos}{3}{subsection.2.1.2}
\contentsline {section}{\numberline {2.2}Exemplo de C\'odigo-Fonte em Java}{4}{section.2.2}
\contentsline {section}{\numberline {2.3}Algumas Refer\^encias}{4}{section.2.3}
\contentsline {chapter}{\numberline {3}Conclus\~oes}{7}{chapter.3}
\contentsline {section}{\numberline {3.1}Considera\c c\~oes Finais}{7}{section.3.1}
\contentsline {section}{\numberline {3.2}Sugest\~oes para Pesquisas Futuras}{7}{section.3.2}
\contentsline {chapter}{\numberline {A}Sequ\^encias}{9}{appendix.A}
\contentsline {chapter}{Refer\^encias Bibliogr\'aficas}{11}{appendix*.9}
\contentsline {chapter}{\'Indice Remissivo}{12}{appendix*.9}
\contentsfinish 
