\BOOKMARK [0][]{chapter*.4}{Lista de Figuras}{}% 1
\BOOKMARK [0][]{chapter*.5}{Lista de Tabelas}{}% 2
\BOOKMARK [0][]{chapter.1}{Introdu\347\343o}{}% 3
\BOOKMARK [1][]{section.1.1}{Objetivos}{chapter.1}% 4
\BOOKMARK [1][]{section.1.2}{Organiza\347\343o do Trabalho}{chapter.1}% 5
\BOOKMARK [0][]{chapter.2}{Conceitos}{}% 6
\BOOKMARK [1][]{section.2.1}{Fundamentos}{chapter.2}% 7
\BOOKMARK [2][]{subsection.2.1.1}{\301cidos Nucl\351icos}{section.2.1}% 8
\BOOKMARK [2][]{subsection.2.1.2}{Amino\341cidos}{section.2.1}% 9
\BOOKMARK [1][]{section.2.2}{Exemplo de C\363digo-Fonte em Java}{chapter.2}% 10
\BOOKMARK [1][]{section.2.3}{Algumas Refer\352ncias}{chapter.2}% 11
\BOOKMARK [0][]{chapter.3}{Conclus\365es}{}% 12
\BOOKMARK [1][]{section.3.1}{Considera\347\365es Finais}{chapter.3}% 13
\BOOKMARK [1][]{section.3.2}{Sugest\365es para Pesquisas Futuras}{chapter.3}% 14
\BOOKMARK [0][]{appendix.A}{Sequ\352ncias}{}% 15
\BOOKMARK [0][]{appendix*.9}{Refer\352ncias Bibliogr\341ficas}{}% 16
\BOOKMARK [0][]{appendix*.9}{\315ndice Remissivo}{}% 17
